G04 EasyPC Gerber Version 21.0.3 Build 4286 *
G04 #@! TF.Part,Single*
G04 #@! TF.FileFunction,Paste,Bot *
G04 #@! TF.FilePolarity,Positive *
%FSLAX35Y35*%
%MOIN*%
G04 #@! TA.AperFunction,WasherPad*
%ADD22R,0.04600X0.04600*%
G04 #@! TD.AperFunction*
%ADD10C,0.00500*%
X0Y0D02*
D02*
D10*
X250Y250D02*
X392750D01*
Y160250*
X250*
Y250*
D02*
D22*
X85250Y10250D03*
Y17750D03*
Y25250D03*
X165250Y10250D03*
Y17750D03*
Y25250D03*
X215250Y10250D03*
Y17750D03*
Y25250D03*
X265250Y10250D03*
Y17750D03*
Y25250D03*
X0Y0D02*
M02*
