G04 EasyPC Gerber Version 21.0.3 Build 4286 *
G04 #@! TF.Part,Single*
G04 #@! TF.FileFunction,Copper,L1,Top *
G04 #@! TF.FilePolarity,Positive *
%FSLAX35Y35*%
%MOIN*%
%ADD10C,0.00500*%
%ADD17C,0.01500*%
%ADD19C,0.03000*%
G04 #@! TA.AperFunction,WasherPad*
%ADD16C,0.04800*%
%ADD14C,0.06000*%
%ADD15C,0.13000*%
X0Y0D02*
D02*
D10*
X250Y250D02*
X392750D01*
Y160250*
X250*
Y250*
D02*
D14*
X15250Y47750D03*
Y107750D03*
X25250Y47750D03*
X30250Y67750D03*
X40250D03*
X45250Y47750D03*
X50250Y67750D03*
X55250Y47750D03*
Y107750D03*
X60250Y67750D03*
X70250D03*
Y147750D03*
X75250Y47750D03*
X80250Y67750D03*
Y147750D03*
X85250Y47750D03*
X90250Y67750D03*
Y147750D03*
X95250Y47750D03*
X100250Y67750D03*
Y147750D03*
X105250Y47750D03*
X110250Y67750D03*
Y147750D03*
X115250Y47750D03*
X120250Y67750D03*
Y147750D03*
X125250Y47750D03*
X130250Y67750D03*
Y147750D03*
X135250Y47750D03*
X140250Y67750D03*
Y147750D03*
X150250Y67750D03*
Y147750D03*
X155250Y47750D03*
X160250Y67750D03*
Y147750D03*
X165250Y47750D03*
X170250Y67750D03*
Y147750D03*
X175250Y47750D03*
X180250Y67750D03*
Y147750D03*
X185250Y47750D03*
X205250D03*
X215250D03*
Y67750D03*
X225250Y47750D03*
Y67750D03*
X235250Y47750D03*
Y67750D03*
X245250D03*
X255250Y47750D03*
Y67750D03*
X265250Y47750D03*
Y67750D03*
X275250Y47750D03*
Y67750D03*
X285250Y47750D03*
X305250Y17750D03*
Y92750D03*
X315250Y17750D03*
Y92750D03*
X325250Y17750D03*
Y92750D03*
X335250Y17750D03*
Y92750D03*
X345250Y17750D03*
Y92750D03*
X355250Y17750D03*
Y92750D03*
X365250Y17750D03*
Y92750D03*
X375250Y17750D03*
Y92750D03*
D02*
D15*
X15250Y142750D03*
X195250D03*
X305250D03*
X310250Y67750D03*
X370250D03*
X375250Y142750D03*
D02*
D16*
X35250Y25250D03*
X75250Y17750D03*
X145250Y47750D03*
X155250Y17750D03*
X170250Y127750D03*
X195250Y47750D03*
Y60250D03*
X205250Y17750D03*
X225250Y102750D03*
X245250Y25250D03*
X255250Y17750D03*
X325250Y122750D03*
D02*
D17*
X45250Y47750D02*
Y55250D01*
X50250Y60250*
X67750*
X70250Y62750*
Y67750*
X55250Y47750D02*
Y52750D01*
X57750Y55250*
X75250*
X80250Y60250*
Y67750*
X110250Y147750D02*
Y150250D01*
X115250Y155250*
X320250*
X325250Y150250*
Y122750*
X115250Y47750D02*
Y55250D01*
X120250Y60250*
X135250*
X195250*
X135250D02*
X140250Y65250D01*
Y67750*
Y150250D02*
Y147750D01*
X170250Y127750D02*
X145250D01*
X140250Y132750*
Y147750*
X190250Y55250D02*
X195250Y50250D01*
Y47750*
X190250Y55250D02*
X150250D01*
X145250Y50250*
Y47750*
X215250D02*
Y50250D01*
X202750Y62750*
Y107750*
X197750Y112750*
X125250*
X120250Y117750*
Y147750*
X225250Y47750D02*
X207750Y65250D01*
Y112750*
X202750Y117750*
X135250*
X130250Y122750*
Y147750*
X225250Y67750D02*
Y102750D01*
X265250Y47750D02*
X282750Y65250D01*
Y122750*
X277750Y127750*
X180250*
X170250Y137750*
Y147750*
X275250Y47750D02*
Y50250D01*
X287750Y62750*
Y95250*
Y125250*
X280250Y132750*
X185250*
X180250Y137750*
Y147750*
X350250Y100250D02*
X292750D01*
X287750Y95250*
X350250Y100250D02*
X345250Y95250D01*
Y92750*
X365250Y17750D02*
Y42750D01*
X382750Y60250*
Y95250*
X377750Y100250*
X350250*
D02*
D19*
X35250Y25250D02*
Y55250D01*
X40250Y60250*
Y67750*
X75250Y47750D02*
Y17750D01*
X155250D02*
Y47750D01*
X205250D02*
Y17750D01*
X215250Y67750D02*
Y65250D01*
X220250Y60250*
X240250*
X245250Y55250*
Y25250*
X255250Y17750D02*
Y47750D01*
X285250D02*
X320250D01*
X365250Y92750*
X375250D02*
X320250Y37750D01*
X305250Y22750*
Y17750*
X0Y0D02*
M02*
