G04 EasyPC Gerber Version 21.0.3 Build 4286 *
G04 #@! TF.Part,Single*
G04 #@! TF.FileFunction,Drillmap *
G04 #@! TF.FilePolarity,Positive *
%FSLAX35Y35*%
%MOIN*%
%ADD10C,0.00500*%
G04 #@! TA.AperFunction,WasherPad*
%ADD24C,0.10000*%
X0Y0D02*
D02*
D10*
X250Y250D02*
X392750D01*
Y160250*
X250*
Y250*
X25250Y53687D02*
X26813Y57437D01*
X28375Y53687*
X25875Y55250D02*
X27750D01*
X25250Y113687D02*
X26813Y117437D01*
X28375Y113687*
X25875Y115250D02*
X27750D01*
X27437Y150563D02*
X28063Y150250D01*
X28375Y149625*
X28063Y149000*
X27437Y148687*
X25250*
Y152437*
X27437*
X28063Y152125*
X28375Y151500*
X28063Y150875*
X27437Y150563*
X25250*
X35250Y53687D02*
X36813Y57437D01*
X38375Y53687*
X35875Y55250D02*
X37750D01*
X40250Y73687D02*
X41813Y77437D01*
X43375Y73687*
X40875Y75250D02*
X42750D01*
X48375Y31813D02*
X48063Y31500D01*
X47437Y31187*
X46500*
X45875Y31500*
X45563Y31813*
X45250Y32437*
Y33687*
X45563Y34313*
X45875Y34625*
X46500Y34937*
X47437*
X48063Y34625*
X48375Y34313*
X50250Y73687D02*
X51813Y77437D01*
X53375Y73687*
X50875Y75250D02*
X52750D01*
X55250Y53687D02*
X56813Y57437D01*
X58375Y53687*
X55875Y55250D02*
X57750D01*
X60250Y73687D02*
X61813Y77437D01*
X63375Y73687*
X60875Y75250D02*
X62750D01*
X65250Y53687D02*
X66813Y57437D01*
X68375Y53687*
X65875Y55250D02*
X67750D01*
X65250Y113687D02*
X66813Y117437D01*
X68375Y113687*
X65875Y115250D02*
X67750D01*
X70250Y73687D02*
X71813Y77437D01*
X73375Y73687*
X70875Y75250D02*
X72750D01*
X80250Y73687D02*
X81813Y77437D01*
X83375Y73687*
X80875Y75250D02*
X82750D01*
X80250Y153687D02*
X81813Y157437D01*
X83375Y153687*
X80875Y155250D02*
X82750D01*
X88375Y24313D02*
X88063Y24000D01*
X87437Y23687*
X86500*
X85875Y24000*
X85563Y24313*
X85250Y24937*
Y26187*
X85563Y26813*
X85875Y27125*
X86500Y27437*
X87437*
X88063Y27125*
X88375Y26813*
X85250Y53687D02*
X86813Y57437D01*
X88375Y53687*
X85875Y55250D02*
X87750D01*
X90250Y73687D02*
X91813Y77437D01*
X93375Y73687*
X90875Y75250D02*
X92750D01*
X90250Y153687D02*
X91813Y157437D01*
X93375Y153687*
X90875Y155250D02*
X92750D01*
X95250Y53687D02*
X96813Y57437D01*
X98375Y53687*
X95875Y55250D02*
X97750D01*
X100250Y73687D02*
X101813Y77437D01*
X103375Y73687*
X100875Y75250D02*
X102750D01*
X100250Y153687D02*
X101813Y157437D01*
X103375Y153687*
X100875Y155250D02*
X102750D01*
X105250Y53687D02*
X106813Y57437D01*
X108375Y53687*
X105875Y55250D02*
X107750D01*
X110250Y73687D02*
X111813Y77437D01*
X113375Y73687*
X110875Y75250D02*
X112750D01*
X110250Y153687D02*
X111813Y157437D01*
X113375Y153687*
X110875Y155250D02*
X112750D01*
X115250Y53687D02*
X116813Y57437D01*
X118375Y53687*
X115875Y55250D02*
X117750D01*
X120250Y73687D02*
X121813Y77437D01*
X123375Y73687*
X120875Y75250D02*
X122750D01*
X120250Y153687D02*
X121813Y157437D01*
X123375Y153687*
X120875Y155250D02*
X122750D01*
X125250Y53687D02*
X126813Y57437D01*
X128375Y53687*
X125875Y55250D02*
X127750D01*
X130250Y73687D02*
X131813Y77437D01*
X133375Y73687*
X130875Y75250D02*
X132750D01*
X130250Y153687D02*
X131813Y157437D01*
X133375Y153687*
X130875Y155250D02*
X132750D01*
X135250Y53687D02*
X136813Y57437D01*
X138375Y53687*
X135875Y55250D02*
X137750D01*
X140250Y73687D02*
X141813Y77437D01*
X143375Y73687*
X140875Y75250D02*
X142750D01*
X140250Y153687D02*
X141813Y157437D01*
X143375Y153687*
X140875Y155250D02*
X142750D01*
X145250Y53687D02*
X146813Y57437D01*
X148375Y53687*
X145875Y55250D02*
X147750D01*
X150250Y73687D02*
X151813Y77437D01*
X153375Y73687*
X150875Y75250D02*
X152750D01*
X150250Y153687D02*
X151813Y157437D01*
X153375Y153687*
X150875Y155250D02*
X152750D01*
X158375Y54313D02*
X158063Y54000D01*
X157437Y53687*
X156500*
X155875Y54000*
X155563Y54313*
X155250Y54937*
Y56187*
X155563Y56813*
X155875Y57125*
X156500Y57437*
X157437*
X158063Y57125*
X158375Y56813*
X160250Y73687D02*
X161813Y77437D01*
X163375Y73687*
X160875Y75250D02*
X162750D01*
X160250Y153687D02*
X161813Y157437D01*
X163375Y153687*
X160875Y155250D02*
X162750D01*
X168375Y24313D02*
X168063Y24000D01*
X167437Y23687*
X166500*
X165875Y24000*
X165563Y24313*
X165250Y24937*
Y26187*
X165563Y26813*
X165875Y27125*
X166500Y27437*
X167437*
X168063Y27125*
X168375Y26813*
X165250Y53687D02*
X166813Y57437D01*
X168375Y53687*
X165875Y55250D02*
X167750D01*
X170250Y73687D02*
X171813Y77437D01*
X173375Y73687*
X170875Y75250D02*
X172750D01*
X170250Y153687D02*
X171813Y157437D01*
X173375Y153687*
X170875Y155250D02*
X172750D01*
X175250Y53687D02*
X176813Y57437D01*
X178375Y53687*
X175875Y55250D02*
X177750D01*
X180250Y73687D02*
X181813Y77437D01*
X183375Y73687*
X180875Y75250D02*
X182750D01*
X183375Y134313D02*
X183063Y134000D01*
X182437Y133687*
X181500*
X180875Y134000*
X180563Y134313*
X180250Y134937*
Y136187*
X180563Y136813*
X180875Y137125*
X181500Y137437*
X182437*
X183063Y137125*
X183375Y136813*
X180250Y153687D02*
X181813Y157437D01*
X183375Y153687*
X180875Y155250D02*
X182750D01*
X185250Y53687D02*
X186813Y57437D01*
X188375Y53687*
X185875Y55250D02*
X187750D01*
X190250Y73687D02*
X191813Y77437D01*
X193375Y73687*
X190875Y75250D02*
X192750D01*
X190250Y153687D02*
X191813Y157437D01*
X193375Y153687*
X190875Y155250D02*
X192750D01*
X195250Y53687D02*
X196813Y57437D01*
X198375Y53687*
X195875Y55250D02*
X197750D01*
X208375Y54313D02*
X208063Y54000D01*
X207437Y53687*
X206500*
X205875Y54000*
X205563Y54313*
X205250Y54937*
Y56187*
X205563Y56813*
X205875Y57125*
X206500Y57437*
X207437*
X208063Y57125*
X208375Y56813*
Y66813D02*
X208063Y66500D01*
X207437Y66187*
X206500*
X205875Y66500*
X205563Y66813*
X205250Y67437*
Y68687*
X205563Y69313*
X205875Y69625*
X206500Y69937*
X207437*
X208063Y69625*
X208375Y69313*
X207437Y150563D02*
X208063Y150250D01*
X208375Y149625*
X208063Y149000*
X207437Y148687*
X205250*
Y152437*
X207437*
X208063Y152125*
X208375Y151500*
X208063Y150875*
X207437Y150563*
X205250*
X218375Y24313D02*
X218063Y24000D01*
X217437Y23687*
X216500*
X215875Y24000*
X215563Y24313*
X215250Y24937*
Y26187*
X215563Y26813*
X215875Y27125*
X216500Y27437*
X217437*
X218063Y27125*
X218375Y26813*
X215250Y53687D02*
X216813Y57437D01*
X218375Y53687*
X215875Y55250D02*
X217750D01*
X225250Y53687D02*
X226813Y57437D01*
X228375Y53687*
X225875Y55250D02*
X227750D01*
X225250Y73687D02*
X226813Y77437D01*
X228375Y73687*
X225875Y75250D02*
X227750D01*
X235250Y53687D02*
X236813Y57437D01*
X238375Y53687*
X235875Y55250D02*
X237750D01*
X235250Y73687D02*
X236813Y77437D01*
X238375Y73687*
X235875Y75250D02*
X237750D01*
X238375Y109313D02*
X238063Y109000D01*
X237437Y108687*
X236500*
X235875Y109000*
X235563Y109313*
X235250Y109937*
Y111187*
X235563Y111813*
X235875Y112125*
X236500Y112437*
X237437*
X238063Y112125*
X238375Y111813*
X245250Y53687D02*
X246813Y57437D01*
X248375Y53687*
X245875Y55250D02*
X247750D01*
X245250Y73687D02*
X246813Y77437D01*
X248375Y73687*
X245875Y75250D02*
X247750D01*
X258375Y31813D02*
X258063Y31500D01*
X257437Y31187*
X256500*
X255875Y31500*
X255563Y31813*
X255250Y32437*
Y33687*
X255563Y34313*
X255875Y34625*
X256500Y34937*
X257437*
X258063Y34625*
X258375Y34313*
X255250Y73687D02*
X256813Y77437D01*
X258375Y73687*
X255875Y75250D02*
X257750D01*
X268375Y24313D02*
X268063Y24000D01*
X267437Y23687*
X266500*
X265875Y24000*
X265563Y24313*
X265250Y24937*
Y26187*
X265563Y26813*
X265875Y27125*
X266500Y27437*
X267437*
X268063Y27125*
X268375Y26813*
X265250Y53687D02*
X266813Y57437D01*
X268375Y53687*
X265875Y55250D02*
X267750D01*
X265250Y73687D02*
X266813Y77437D01*
X268375Y73687*
X265875Y75250D02*
X267750D01*
X275250Y53687D02*
X276813Y57437D01*
X278375Y53687*
X275875Y55250D02*
X277750D01*
X275250Y73687D02*
X276813Y77437D01*
X278375Y73687*
X275875Y75250D02*
X277750D01*
X285250Y53687D02*
X286813Y57437D01*
X288375Y53687*
X285875Y55250D02*
X287750D01*
X285250Y73687D02*
X286813Y77437D01*
X288375Y73687*
X285875Y75250D02*
X287750D01*
X295250Y53687D02*
X296813Y57437D01*
X298375Y53687*
X295875Y55250D02*
X297750D01*
X315250Y23687D02*
X316813Y27437D01*
X318375Y23687*
X315875Y25250D02*
X317750D01*
X315250Y98687D02*
X316813Y102437D01*
X318375Y98687*
X315875Y100250D02*
X317750D01*
X317437Y150563D02*
X318063Y150250D01*
X318375Y149625*
X318063Y149000*
X317437Y148687*
X315250*
Y152437*
X317437*
X318063Y152125*
X318375Y151500*
X318063Y150875*
X317437Y150563*
X315250*
X322437Y75563D02*
X323063Y75250D01*
X323375Y74625*
X323063Y74000*
X322437Y73687*
X320250*
Y77437*
X322437*
X323063Y77125*
X323375Y76500*
X323063Y75875*
X322437Y75563*
X320250*
X325250Y23687D02*
X326813Y27437D01*
X328375Y23687*
X325875Y25250D02*
X327750D01*
X325250Y98687D02*
X326813Y102437D01*
X328375Y98687*
X325875Y100250D02*
X327750D01*
X335250Y23687D02*
X336813Y27437D01*
X338375Y23687*
X335875Y25250D02*
X337750D01*
X335250Y98687D02*
X336813Y102437D01*
X338375Y98687*
X335875Y100250D02*
X337750D01*
X338375Y129313D02*
X338063Y129000D01*
X337437Y128687*
X336500*
X335875Y129000*
X335563Y129313*
X335250Y129937*
Y131187*
X335563Y131813*
X335875Y132125*
X336500Y132437*
X337437*
X338063Y132125*
X338375Y131813*
X345250Y23687D02*
X346813Y27437D01*
X348375Y23687*
X345875Y25250D02*
X347750D01*
X345250Y98687D02*
X346813Y102437D01*
X348375Y98687*
X345875Y100250D02*
X347750D01*
X355250Y23687D02*
X356813Y27437D01*
X358375Y23687*
X355875Y25250D02*
X357750D01*
X355250Y98687D02*
X356813Y102437D01*
X358375Y98687*
X355875Y100250D02*
X357750D01*
X365250Y23687D02*
X366813Y27437D01*
X368375Y23687*
X365875Y25250D02*
X367750D01*
X365250Y98687D02*
X366813Y102437D01*
X368375Y98687*
X365875Y100250D02*
X367750D01*
X375250Y23687D02*
X376813Y27437D01*
X378375Y23687*
X375875Y25250D02*
X377750D01*
X375250Y98687D02*
X376813Y102437D01*
X378375Y98687*
X375875Y100250D02*
X377750D01*
X382437Y75563D02*
X383063Y75250D01*
X383375Y74625*
X383063Y74000*
X382437Y73687*
X380250*
Y77437*
X382437*
X383063Y77125*
X383375Y76500*
X383063Y75875*
X382437Y75563*
X380250*
X385250Y23687D02*
X386813Y27437D01*
X388375Y23687*
X385875Y25250D02*
X387750D01*
X385250Y98687D02*
X386813Y102437D01*
X388375Y98687*
X385875Y100250D02*
X387750D01*
X387437Y150563D02*
X388063Y150250D01*
X388375Y149625*
X388063Y149000*
X387437Y148687*
X385250*
Y152437*
X387437*
X388063Y152125*
X388375Y151500*
X388063Y150875*
X387437Y150563*
X385250*
D02*
D24*
X15250Y47750D03*
Y107750D03*
Y142750D03*
X25250Y47750D03*
X30250Y67750D03*
X35250Y25250D03*
X40250Y67750D03*
X45250Y47750D03*
X50250Y67750D03*
X55250Y47750D03*
Y107750D03*
X60250Y67750D03*
X70250D03*
Y147750D03*
X75250Y17750D03*
Y47750D03*
X80250Y67750D03*
Y147750D03*
X85250Y47750D03*
X90250Y67750D03*
Y147750D03*
X95250Y47750D03*
X100250Y67750D03*
Y147750D03*
X105250Y47750D03*
X110250Y67750D03*
Y147750D03*
X115250Y47750D03*
X120250Y67750D03*
Y147750D03*
X125250Y47750D03*
X130250Y67750D03*
Y147750D03*
X135250Y47750D03*
X140250Y67750D03*
Y147750D03*
X145250Y47750D03*
X150250Y67750D03*
Y147750D03*
X155250Y17750D03*
Y47750D03*
X160250Y67750D03*
Y147750D03*
X165250Y47750D03*
X170250Y67750D03*
Y127750D03*
Y147750D03*
X175250Y47750D03*
X180250Y67750D03*
Y147750D03*
X185250Y47750D03*
X195250D03*
Y60250D03*
Y142750D03*
X205250Y17750D03*
Y47750D03*
X215250D03*
Y67750D03*
X225250Y47750D03*
Y67750D03*
Y102750D03*
X235250Y47750D03*
Y67750D03*
X245250Y25250D03*
Y67750D03*
X255250Y17750D03*
Y47750D03*
Y67750D03*
X265250Y47750D03*
Y67750D03*
X275250Y47750D03*
Y67750D03*
X285250Y47750D03*
X305250Y17750D03*
Y92750D03*
Y142750D03*
X310250Y67750D03*
X315250Y17750D03*
Y92750D03*
X325250Y17750D03*
Y92750D03*
Y122750D03*
X335250Y17750D03*
Y92750D03*
X345250Y17750D03*
Y92750D03*
X355250Y17750D03*
Y92750D03*
X365250Y17750D03*
Y92750D03*
X370250Y67750D03*
X375250Y17750D03*
Y92750D03*
Y142750D03*
X0Y0D02*
M02*
