G04 EasyPC Gerber Version 21.0.3 Build 4286 *
G04 #@! TF.Part,Single*
G04 #@! TF.FileFunction,Other,V8 - Top Documentation *
G04 #@! TF.FilePolarity,Positive *
%FSLAX35Y35*%
%MOIN*%
%ADD10C,0.00500*%
X0Y0D02*
D02*
D10*
X250Y250D02*
X392750D01*
Y160250*
X250*
Y250*
X0Y0D02*
M02*
